project_benches/proj_2/sim/transcript
# //  Questa Sim
# //  Version 2020.4_1 linux Nov  6 2020
# //
# //  Copyright 1991-2020 Mentor Graphics Corporation
# //  All Rights Reserved.
# //
# //  QuestaSim and its associated documentation contain trade
# //  secrets and commercial or financial information that are the property of
# //  Mentor Graphics Corporation and are privileged, confidential,
# //  and exempt from disclosure under the Freedom of Information Act,
# //  5 U.S.C. Section 552. Furthermore, this information
# //  is prohibited from disclosure under the Trade Secrets Act,
# //  18 U.S.C. Section 1905.
# //
# vsim -i -classdebug -msgmode both -do "set NoQuitOnFinish 1; do wave.do" optimized_debug_top_tb 
# Start time: 18:25:04 on Mar 30,2022
# Loading sv_std.std
# Loading work.i2c_if(fast)
# Loading work.parameter_pkg(fast)
# Loading work.ncsu_pkg(fast)
# Loading work.i2c_pkg(fast)
# Loading work.wb_if(fast)
# Loading work.wb_pkg(fast)
# Loading work.i2cmb_env_pkg(fast)
# Loading work.top(fast)
# Loading work.i2c_if(fast__2)
# Loading work.wb_if(fast__2)
# Loading std.standard
# Loading std.textio(body)
# Loading ieee.std_logic_1164(body)
# Loading work.iicmb_m_wb(str)#1
# Loading work.wishbone(rtl)#1
# Loading ieee.numeric_std(body)
# Loading work.iicmb_pkg(body)
# Loading work.regblock(rtl)#1
# Loading work.iicmb_int_pkg(body)
# Loading work.iicmb_m(str)#1
# Loading work.mbyte(rtl)#1
# Loading work.mbit(rtl)#1
# Loading work.conditioner_mux(str)#1
# Loading work.conditioner(str)#1
# Loading work.filter(rtl)#1
# Loading work.bus_state(rtl)#1
# set NoQuitOnFinish 1
# 1
#  do wave.do
run 7ms
# ----------------------------------------------------------------
# //  NCSU Package 
# //  Version 1.0a
# ----------------------------------------------------------------
# 
# 
# NCSU_INFO:Time                    0:ncsu_component::build():  of tst.env.i2c_ag.driver called
# NCSU_INFO:Time                    0:ncsu_component::build():  of tst.env.i2c_ag.monitor called
# NCSU_INFO:Time                    0:ncsu_component::build():  of tst.env.wb_ag.driver called
# NCSU_INFO:Time                    0:ncsu_component::build():  of tst.env.wb_ag.monitor called
# NCSU_INFO:Time                    0:ncsu_component::build():  of tst.env.pred called
# NCSU_INFO:Time                    0:ncsu_component::build():  of tst.env.scbd called
# /top/wb_bus
# /top/i2c_bus
# tst.env.scbd nb_transport: expected transaction name:  transaction_count: 214 addr:0x22 op:0x0 data:'{0, 1, 2, 3, 4, 5, 6, 7, 8, 9, 10, 11, 12, 13, 14, 15, 16, 17, 18, 19, 20, 21, 22, 23, 24, 25, 26, 27, 28, 29, 30, 31}
# tst.env.scbd       nb_put:   actual transaction name:  transaction_count: 2 addr:0x22 op:0x0 data:'{0, 1, 2, 3, 4, 5, 6, 7, 8, 9, 10, 11, 12, 13, 14, 15, 16, 17, 18, 19, 20, 21, 22, 23, 24, 25, 26, 27, 28, 29, 30, 31}
# tst.env.scbd wb_transaction MATCH!
# tst.env.scbd nb_transport: expected transaction name:  transaction_count: 426 addr:0x22 op:0x1 data:'{100, 101, 102, 103, 104, 105, 106, 107, 108, 109, 110, 111, 112, 113, 114, 115, 116, 117, 118, 119, 120, 121, 122, 123, 124, 125, 126, 127, 128, 129, 130, 131}
# tst.env.scbd       nb_put:   actual transaction name:  transaction_count: 217 addr:0x22 op:0x1 data:'{100, 101, 102, 103, 104, 105, 106, 107, 108, 109, 110, 111, 112, 113, 114, 115, 116, 117, 118, 119, 120, 121, 122, 123, 124, 125, 126, 127, 128, 129, 130, 131}
# tst.env.scbd wb_transaction MATCH!
# tst.env.scbd nb_transport: expected transaction name:  transaction_count: 449 addr:0x22 op:0x0 data:'{64}
# tst.env.scbd       nb_put:   actual transaction name:  transaction_count: 430 addr:0x22 op:0x0 data:'{64}
# tst.env.scbd wb_transaction MATCH!
# tst.env.scbd nb_transport: expected transaction name:  transaction_count: 472 addr:0x22 op:0x1 data:'{63}
# tst.env.scbd       nb_put:   actual transaction name:  transaction_count: 452 addr:0x22 op:0x1 data:'{63}
# tst.env.scbd wb_transaction MATCH!
# tst.env.scbd nb_transport: expected transaction name:  transaction_count: 495 addr:0x22 op:0x0 data:'{65}
# tst.env.scbd       nb_put:   actual transaction name:  transaction_count: 476 addr:0x22 op:0x0 data:'{65}
# tst.env.scbd wb_transaction MATCH!
# tst.env.scbd nb_transport: expected transaction name:  transaction_count: 518 addr:0x22 op:0x1 data:'{62}
# tst.env.scbd       nb_put:   actual transaction name:  transaction_count: 498 addr:0x22 op:0x1 data:'{62}
# tst.env.scbd wb_transaction MATCH!
run -all
# tst.env.scbd nb_transport: expected transaction name:  transaction_count: 541 addr:0x22 op:0x0 data:'{66}
# tst.env.scbd       nb_put:   actual transaction name:  transaction_count: 522 addr:0x22 op:0x0 data:'{66}
# tst.env.scbd wb_transaction MATCH!
# tst.env.scbd nb_transport: expected transaction name:  transaction_count: 564 addr:0x22 op:0x1 data:'{61}
# tst.env.scbd       nb_put:   actual transaction name:  transaction_count: 544 addr:0x22 op:0x1 data:'{61}
# tst.env.scbd wb_transaction MATCH!
# tst.env.scbd nb_transport: expected transaction name:  transaction_count: 587 addr:0x22 op:0x0 data:'{67}
# tst.env.scbd       nb_put:   actual transaction name:  transaction_count: 568 addr:0x22 op:0x0 data:'{67}
# tst.env.scbd wb_transaction MATCH!
# tst.env.scbd nb_transport: expected transaction name:  transaction_count: 610 addr:0x22 op:0x1 data:'{60}
# tst.env.scbd       nb_put:   actual transaction name:  transaction_count: 590 addr:0x22 op:0x1 data:'{60}
# tst.env.scbd wb_transaction MATCH!
# tst.env.scbd nb_transport: expected transaction name:  transaction_count: 633 addr:0x22 op:0x0 data:'{68}
# tst.env.scbd       nb_put:   actual transaction name:  transaction_count: 614 addr:0x22 op:0x0 data:'{68}
# tst.env.scbd wb_transaction MATCH!
# tst.env.scbd nb_transport: expected transaction name:  transaction_count: 656 addr:0x22 op:0x1 data:'{59}
# tst.env.scbd       nb_put:   actual transaction name:  transaction_count: 636 addr:0x22 op:0x1 data:'{59}
# tst.env.scbd wb_transaction MATCH!
# tst.env.scbd nb_transport: expected transaction name:  transaction_count: 679 addr:0x22 op:0x0 data:'{69}
# tst.env.scbd       nb_put:   actual transaction name:  transaction_count: 660 addr:0x22 op:0x0 data:'{69}
# tst.env.scbd wb_transaction MATCH!
# tst.env.scbd nb_transport: expected transaction name:  transaction_count: 702 addr:0x22 op:0x1 data:'{58}
# tst.env.scbd       nb_put:   actual transaction name:  transaction_count: 682 addr:0x22 op:0x1 data:'{58}
# tst.env.scbd wb_transaction MATCH!
# tst.env.scbd nb_transport: expected transaction name:  transaction_count: 725 addr:0x22 op:0x0 data:'{70}
# tst.env.scbd       nb_put:   actual transaction name:  transaction_count: 706 addr:0x22 op:0x0 data:'{70}
# tst.env.scbd wb_transaction MATCH!
# tst.env.scbd nb_transport: expected transaction name:  transaction_count: 748 addr:0x22 op:0x1 data:'{57}
# tst.env.scbd       nb_put:   actual transaction name:  transaction_count: 728 addr:0x22 op:0x1 data:'{57}
# tst.env.scbd wb_transaction MATCH!
# tst.env.scbd nb_transport: expected transaction name:  transaction_count: 771 addr:0x22 op:0x0 data:'{71}
# tst.env.scbd       nb_put:   actual transaction name:  transaction_count: 752 addr:0x22 op:0x0 data:'{71}
# tst.env.scbd wb_transaction MATCH!
# tst.env.scbd nb_transport: expected transaction name:  transaction_count: 794 addr:0x22 op:0x1 data:'{56}
# tst.env.scbd       nb_put:   actual transaction name:  transaction_count: 774 addr:0x22 op:0x1 data:'{56}
# tst.env.scbd wb_transaction MATCH!
# tst.env.scbd nb_transport: expected transaction name:  transaction_count: 817 addr:0x22 op:0x0 data:'{72}
# tst.env.scbd       nb_put:   actual transaction name:  transaction_count: 798 addr:0x22 op:0x0 data:'{72}
# tst.env.scbd wb_transaction MATCH!
# tst.env.scbd nb_transport: expected transaction name:  transaction_count: 840 addr:0x22 op:0x1 data:'{55}
# tst.env.scbd       nb_put:   actual transaction name:  transaction_count: 820 addr:0x22 op:0x1 data:'{55}
# tst.env.scbd wb_transaction MATCH!
# tst.env.scbd nb_transport: expected transaction name:  transaction_count: 863 addr:0x22 op:0x0 data:'{73}
# tst.env.scbd       nb_put:   actual transaction name:  transaction_count: 844 addr:0x22 op:0x0 data:'{73}
# tst.env.scbd wb_transaction MATCH!
# tst.env.scbd nb_transport: expected transaction name:  transaction_count: 886 addr:0x22 op:0x1 data:'{54}
# tst.env.scbd       nb_put:   actual transaction name:  transaction_count: 866 addr:0x22 op:0x1 data:'{54}
# tst.env.scbd wb_transaction MATCH!
# tst.env.scbd nb_transport: expected transaction name:  transaction_count: 909 addr:0x22 op:0x0 data:'{74}
# tst.env.scbd       nb_put:   actual transaction name:  transaction_count: 890 addr:0x22 op:0x0 data:'{74}
# tst.env.scbd wb_transaction MATCH!
# tst.env.scbd nb_transport: expected transaction name:  transaction_count: 932 addr:0x22 op:0x1 data:'{53}
# tst.env.scbd       nb_put:   actual transaction name:  transaction_count: 912 addr:0x22 op:0x1 data:'{53}
# tst.env.scbd wb_transaction MATCH!
# tst.env.scbd nb_transport: expected transaction name:  transaction_count: 955 addr:0x22 op:0x0 data:'{75}
# tst.env.scbd       nb_put:   actual transaction name:  transaction_count: 936 addr:0x22 op:0x0 data:'{75}
# tst.env.scbd wb_transaction MATCH!
# tst.env.scbd nb_transport: expected transaction name:  transaction_count: 978 addr:0x22 op:0x1 data:'{52}
# tst.env.scbd       nb_put:   actual transaction name:  transaction_count: 958 addr:0x22 op:0x1 data:'{52}
# tst.env.scbd wb_transaction MATCH!
# tst.env.scbd nb_transport: expected transaction name:  transaction_count: 1001 addr:0x22 op:0x0 data:'{76}
# tst.env.scbd       nb_put:   actual transaction name:  transaction_count: 982 addr:0x22 op:0x0 data:'{76}
# tst.env.scbd wb_transaction MATCH!
# tst.env.scbd nb_transport: expected transaction name:  transaction_count: 1024 addr:0x22 op:0x1 data:'{51}
# tst.env.scbd       nb_put:   actual transaction name:  transaction_count: 1004 addr:0x22 op:0x1 data:'{51}
# tst.env.scbd wb_transaction MATCH!
# tst.env.scbd nb_transport: expected transaction name:  transaction_count: 1047 addr:0x22 op:0x0 data:'{77}
# tst.env.scbd       nb_put:   actual transaction name:  transaction_count: 1028 addr:0x22 op:0x0 data:'{77}
# tst.env.scbd wb_transaction MATCH!
# tst.env.scbd nb_transport: expected transaction name:  transaction_count: 1070 addr:0x22 op:0x1 data:'{50}
# tst.env.scbd       nb_put:   actual transaction name:  transaction_count: 1050 addr:0x22 op:0x1 data:'{50}
# tst.env.scbd wb_transaction MATCH!
# tst.env.scbd nb_transport: expected transaction name:  transaction_count: 1093 addr:0x22 op:0x0 data:'{78}
# tst.env.scbd       nb_put:   actual transaction name:  transaction_count: 1074 addr:0x22 op:0x0 data:'{78}
# tst.env.scbd wb_transaction MATCH!
# tst.env.scbd nb_transport: expected transaction name:  transaction_count: 1116 addr:0x22 op:0x1 data:'{49}
# tst.env.scbd       nb_put:   actual transaction name:  transaction_count: 1096 addr:0x22 op:0x1 data:'{49}
# tst.env.scbd wb_transaction MATCH!
# tst.env.scbd nb_transport: expected transaction name:  transaction_count: 1139 addr:0x22 op:0x0 data:'{79}
# tst.env.scbd       nb_put:   actual transaction name:  transaction_count: 1120 addr:0x22 op:0x0 data:'{79}
# tst.env.scbd wb_transaction MATCH!
# tst.env.scbd nb_transport: expected transaction name:  transaction_count: 1162 addr:0x22 op:0x1 data:'{48}
# tst.env.scbd       nb_put:   actual transaction name:  transaction_count: 1142 addr:0x22 op:0x1 data:'{48}
# tst.env.scbd wb_transaction MATCH!
# tst.env.scbd nb_transport: expected transaction name:  transaction_count: 1185 addr:0x22 op:0x0 data:'{80}
# tst.env.scbd       nb_put:   actual transaction name:  transaction_count: 1166 addr:0x22 op:0x0 data:'{80}
# tst.env.scbd wb_transaction MATCH!
# tst.env.scbd nb_transport: expected transaction name:  transaction_count: 1208 addr:0x22 op:0x1 data:'{47}
# tst.env.scbd       nb_put:   actual transaction name:  transaction_count: 1188 addr:0x22 op:0x1 data:'{47}
# tst.env.scbd wb_transaction MATCH!
# tst.env.scbd nb_transport: expected transaction name:  transaction_count: 1231 addr:0x22 op:0x0 data:'{81}
# tst.env.scbd       nb_put:   actual transaction name:  transaction_count: 1212 addr:0x22 op:0x0 data:'{81}
# tst.env.scbd wb_transaction MATCH!
# tst.env.scbd nb_transport: expected transaction name:  transaction_count: 1254 addr:0x22 op:0x1 data:'{46}
# tst.env.scbd       nb_put:   actual transaction name:  transaction_count: 1234 addr:0x22 op:0x1 data:'{46}
# tst.env.scbd wb_transaction MATCH!
# tst.env.scbd nb_transport: expected transaction name:  transaction_count: 1277 addr:0x22 op:0x0 data:'{82}
# tst.env.scbd       nb_put:   actual transaction name:  transaction_count: 1258 addr:0x22 op:0x0 data:'{82}
# tst.env.scbd wb_transaction MATCH!
# tst.env.scbd nb_transport: expected transaction name:  transaction_count: 1300 addr:0x22 op:0x1 data:'{45}
# tst.env.scbd       nb_put:   actual transaction name:  transaction_count: 1280 addr:0x22 op:0x1 data:'{45}
# tst.env.scbd wb_transaction MATCH!
# tst.env.scbd nb_transport: expected transaction name:  transaction_count: 1323 addr:0x22 op:0x0 data:'{83}
# tst.env.scbd       nb_put:   actual transaction name:  transaction_count: 1304 addr:0x22 op:0x0 data:'{83}
# tst.env.scbd wb_transaction MATCH!
# tst.env.scbd nb_transport: expected transaction name:  transaction_count: 1346 addr:0x22 op:0x1 data:'{44}
# tst.env.scbd       nb_put:   actual transaction name:  transaction_count: 1326 addr:0x22 op:0x1 data:'{44}
# tst.env.scbd wb_transaction MATCH!
# tst.env.scbd nb_transport: expected transaction name:  transaction_count: 1369 addr:0x22 op:0x0 data:'{84}
# tst.env.scbd       nb_put:   actual transaction name:  transaction_count: 1350 addr:0x22 op:0x0 data:'{84}
# tst.env.scbd wb_transaction MATCH!
# tst.env.scbd nb_transport: expected transaction name:  transaction_count: 1392 addr:0x22 op:0x1 data:'{43}
# tst.env.scbd       nb_put:   actual transaction name:  transaction_count: 1372 addr:0x22 op:0x1 data:'{43}
# tst.env.scbd wb_transaction MATCH!
# tst.env.scbd nb_transport: expected transaction name:  transaction_count: 1415 addr:0x22 op:0x0 data:'{85}
# tst.env.scbd       nb_put:   actual transaction name:  transaction_count: 1396 addr:0x22 op:0x0 data:'{85}
# tst.env.scbd wb_transaction MATCH!
# tst.env.scbd nb_transport: expected transaction name:  transaction_count: 1438 addr:0x22 op:0x1 data:'{42}
# tst.env.scbd       nb_put:   actual transaction name:  transaction_count: 1418 addr:0x22 op:0x1 data:'{42}
# tst.env.scbd wb_transaction MATCH!
# tst.env.scbd nb_transport: expected transaction name:  transaction_count: 1461 addr:0x22 op:0x0 data:'{86}
# tst.env.scbd       nb_put:   actual transaction name:  transaction_count: 1442 addr:0x22 op:0x0 data:'{86}
# tst.env.scbd wb_transaction MATCH!
# tst.env.scbd nb_transport: expected transaction name:  transaction_count: 1484 addr:0x22 op:0x1 data:'{41}
# tst.env.scbd       nb_put:   actual transaction name:  transaction_count: 1464 addr:0x22 op:0x1 data:'{41}
# tst.env.scbd wb_transaction MATCH!
# tst.env.scbd nb_transport: expected transaction name:  transaction_count: 1507 addr:0x22 op:0x0 data:'{87}
# tst.env.scbd       nb_put:   actual transaction name:  transaction_count: 1488 addr:0x22 op:0x0 data:'{87}
# tst.env.scbd wb_transaction MATCH!
# tst.env.scbd nb_transport: expected transaction name:  transaction_count: 1530 addr:0x22 op:0x1 data:'{40}
# tst.env.scbd       nb_put:   actual transaction name:  transaction_count: 1510 addr:0x22 op:0x1 data:'{40}
# tst.env.scbd wb_transaction MATCH!
# tst.env.scbd nb_transport: expected transaction name:  transaction_count: 1553 addr:0x22 op:0x0 data:'{88}
# tst.env.scbd       nb_put:   actual transaction name:  transaction_count: 1534 addr:0x22 op:0x0 data:'{88}
# tst.env.scbd wb_transaction MATCH!
# tst.env.scbd nb_transport: expected transaction name:  transaction_count: 1576 addr:0x22 op:0x1 data:'{39}
# tst.env.scbd       nb_put:   actual transaction name:  transaction_count: 1556 addr:0x22 op:0x1 data:'{39}
# tst.env.scbd wb_transaction MATCH!
# tst.env.scbd nb_transport: expected transaction name:  transaction_count: 1599 addr:0x22 op:0x0 data:'{89}
# tst.env.scbd       nb_put:   actual transaction name:  transaction_count: 1580 addr:0x22 op:0x0 data:'{89}
# tst.env.scbd wb_transaction MATCH!
# tst.env.scbd nb_transport: expected transaction name:  transaction_count: 1622 addr:0x22 op:0x1 data:'{38}
# tst.env.scbd       nb_put:   actual transaction name:  transaction_count: 1602 addr:0x22 op:0x1 data:'{38}
# tst.env.scbd wb_transaction MATCH!
# tst.env.scbd nb_transport: expected transaction name:  transaction_count: 1645 addr:0x22 op:0x0 data:'{90}
# tst.env.scbd       nb_put:   actual transaction name:  transaction_count: 1626 addr:0x22 op:0x0 data:'{90}
# tst.env.scbd wb_transaction MATCH!
# tst.env.scbd nb_transport: expected transaction name:  transaction_count: 1668 addr:0x22 op:0x1 data:'{37}
# tst.env.scbd       nb_put:   actual transaction name:  transaction_count: 1648 addr:0x22 op:0x1 data:'{37}
# tst.env.scbd wb_transaction MATCH!
# tst.env.scbd nb_transport: expected transaction name:  transaction_count: 1691 addr:0x22 op:0x0 data:'{91}
# tst.env.scbd       nb_put:   actual transaction name:  transaction_count: 1672 addr:0x22 op:0x0 data:'{91}
# tst.env.scbd wb_transaction MATCH!
# tst.env.scbd nb_transport: expected transaction name:  transaction_count: 1714 addr:0x22 op:0x1 data:'{36}
# tst.env.scbd       nb_put:   actual transaction name:  transaction_count: 1694 addr:0x22 op:0x1 data:'{36}
# tst.env.scbd wb_transaction MATCH!
# tst.env.scbd nb_transport: expected transaction name:  transaction_count: 1737 addr:0x22 op:0x0 data:'{92}
# tst.env.scbd       nb_put:   actual transaction name:  transaction_count: 1718 addr:0x22 op:0x0 data:'{92}
# tst.env.scbd wb_transaction MATCH!
# tst.env.scbd nb_transport: expected transaction name:  transaction_count: 1760 addr:0x22 op:0x1 data:'{35}
# tst.env.scbd       nb_put:   actual transaction name:  transaction_count: 1740 addr:0x22 op:0x1 data:'{35}
# tst.env.scbd wb_transaction MATCH!
# tst.env.scbd nb_transport: expected transaction name:  transaction_count: 1783 addr:0x22 op:0x0 data:'{93}
# tst.env.scbd       nb_put:   actual transaction name:  transaction_count: 1764 addr:0x22 op:0x0 data:'{93}
# tst.env.scbd wb_transaction MATCH!
# tst.env.scbd nb_transport: expected transaction name:  transaction_count: 1806 addr:0x22 op:0x1 data:'{34}
# tst.env.scbd       nb_put:   actual transaction name:  transaction_count: 1786 addr:0x22 op:0x1 data:'{34}
# tst.env.scbd wb_transaction MATCH!
# tst.env.scbd nb_transport: expected transaction name:  transaction_count: 1829 addr:0x22 op:0x0 data:'{94}
# tst.env.scbd       nb_put:   actual transaction name:  transaction_count: 1810 addr:0x22 op:0x0 data:'{94}
# tst.env.scbd wb_transaction MATCH!
# tst.env.scbd nb_transport: expected transaction name:  transaction_count: 1852 addr:0x22 op:0x1 data:'{33}
# tst.env.scbd       nb_put:   actual transaction name:  transaction_count: 1832 addr:0x22 op:0x1 data:'{33}
# tst.env.scbd wb_transaction MATCH!
# tst.env.scbd nb_transport: expected transaction name:  transaction_count: 1875 addr:0x22 op:0x0 data:'{95}
# tst.env.scbd       nb_put:   actual transaction name:  transaction_count: 1856 addr:0x22 op:0x0 data:'{95}
# tst.env.scbd wb_transaction MATCH!
# tst.env.scbd nb_transport: expected transaction name:  transaction_count: 1898 addr:0x22 op:0x1 data:'{32}
# tst.env.scbd       nb_put:   actual transaction name:  transaction_count: 1878 addr:0x22 op:0x1 data:'{32}
# tst.env.scbd wb_transaction MATCH!
# tst.env.scbd nb_transport: expected transaction name:  transaction_count: 1921 addr:0x22 op:0x0 data:'{96}
# tst.env.scbd       nb_put:   actual transaction name:  transaction_count: 1902 addr:0x22 op:0x0 data:'{96}
# tst.env.scbd wb_transaction MATCH!
# tst.env.scbd nb_transport: expected transaction name:  transaction_count: 1944 addr:0x22 op:0x1 data:'{31}
# tst.env.scbd       nb_put:   actual transaction name:  transaction_count: 1924 addr:0x22 op:0x1 data:'{31}
# tst.env.scbd wb_transaction MATCH!
# tst.env.scbd nb_transport: expected transaction name:  transaction_count: 1967 addr:0x22 op:0x0 data:'{97}
# tst.env.scbd       nb_put:   actual transaction name:  transaction_count: 1948 addr:0x22 op:0x0 data:'{97}
# tst.env.scbd wb_transaction MATCH!
# tst.env.scbd nb_transport: expected transaction name:  transaction_count: 1990 addr:0x22 op:0x1 data:'{30}
# tst.env.scbd       nb_put:   actual transaction name:  transaction_count: 1970 addr:0x22 op:0x1 data:'{30}
# tst.env.scbd wb_transaction MATCH!
# tst.env.scbd nb_transport: expected transaction name:  transaction_count: 2013 addr:0x22 op:0x0 data:'{98}
# tst.env.scbd       nb_put:   actual transaction name:  transaction_count: 1994 addr:0x22 op:0x0 data:'{98}
# tst.env.scbd wb_transaction MATCH!
# tst.env.scbd nb_transport: expected transaction name:  transaction_count: 2036 addr:0x22 op:0x1 data:'{29}
# tst.env.scbd       nb_put:   actual transaction name:  transaction_count: 2016 addr:0x22 op:0x1 data:'{29}
# tst.env.scbd wb_transaction MATCH!
# tst.env.scbd nb_transport: expected transaction name:  transaction_count: 2059 addr:0x22 op:0x0 data:'{99}
# tst.env.scbd       nb_put:   actual transaction name:  transaction_count: 2040 addr:0x22 op:0x0 data:'{99}
# tst.env.scbd wb_transaction MATCH!
# tst.env.scbd nb_transport: expected transaction name:  transaction_count: 2082 addr:0x22 op:0x1 data:'{28}
# tst.env.scbd       nb_put:   actual transaction name:  transaction_count: 2062 addr:0x22 op:0x1 data:'{28}
# tst.env.scbd wb_transaction MATCH!
# tst.env.scbd nb_transport: expected transaction name:  transaction_count: 2105 addr:0x22 op:0x0 data:'{100}
# tst.env.scbd       nb_put:   actual transaction name:  transaction_count: 2086 addr:0x22 op:0x0 data:'{100}
# tst.env.scbd wb_transaction MATCH!
# tst.env.scbd nb_transport: expected transaction name:  transaction_count: 2128 addr:0x22 op:0x1 data:'{27}
# tst.env.scbd       nb_put:   actual transaction name:  transaction_count: 2108 addr:0x22 op:0x1 data:'{27}
# tst.env.scbd wb_transaction MATCH!
# tst.env.scbd nb_transport: expected transaction name:  transaction_count: 2151 addr:0x22 op:0x0 data:'{101}
# tst.env.scbd       nb_put:   actual transaction name:  transaction_count: 2132 addr:0x22 op:0x0 data:'{101}
# tst.env.scbd wb_transaction MATCH!
# tst.env.scbd nb_transport: expected transaction name:  transaction_count: 2174 addr:0x22 op:0x1 data:'{26}
# tst.env.scbd       nb_put:   actual transaction name:  transaction_count: 2154 addr:0x22 op:0x1 data:'{26}
# tst.env.scbd wb_transaction MATCH!
# tst.env.scbd nb_transport: expected transaction name:  transaction_count: 2197 addr:0x22 op:0x0 data:'{102}
# tst.env.scbd       nb_put:   actual transaction name:  transaction_count: 2178 addr:0x22 op:0x0 data:'{102}
# tst.env.scbd wb_transaction MATCH!
# tst.env.scbd nb_transport: expected transaction name:  transaction_count: 2220 addr:0x22 op:0x1 data:'{25}
# tst.env.scbd       nb_put:   actual transaction name:  transaction_count: 2200 addr:0x22 op:0x1 data:'{25}
# tst.env.scbd wb_transaction MATCH!
# tst.env.scbd nb_transport: expected transaction name:  transaction_count: 2243 addr:0x22 op:0x0 data:'{103}
# tst.env.scbd       nb_put:   actual transaction name:  transaction_count: 2224 addr:0x22 op:0x0 data:'{103}
# tst.env.scbd wb_transaction MATCH!
# tst.env.scbd nb_transport: expected transaction name:  transaction_count: 2266 addr:0x22 op:0x1 data:'{24}
# tst.env.scbd       nb_put:   actual transaction name:  transaction_count: 2246 addr:0x22 op:0x1 data:'{24}
# tst.env.scbd wb_transaction MATCH!
# tst.env.scbd nb_transport: expected transaction name:  transaction_count: 2289 addr:0x22 op:0x0 data:'{104}
# tst.env.scbd       nb_put:   actual transaction name:  transaction_count: 2270 addr:0x22 op:0x0 data:'{104}
# tst.env.scbd wb_transaction MATCH!
# tst.env.scbd nb_transport: expected transaction name:  transaction_count: 2312 addr:0x22 op:0x1 data:'{23}
# tst.env.scbd       nb_put:   actual transaction name:  transaction_count: 2292 addr:0x22 op:0x1 data:'{23}
# tst.env.scbd wb_transaction MATCH!
# tst.env.scbd nb_transport: expected transaction name:  transaction_count: 2335 addr:0x22 op:0x0 data:'{105}
# tst.env.scbd       nb_put:   actual transaction name:  transaction_count: 2316 addr:0x22 op:0x0 data:'{105}
# tst.env.scbd wb_transaction MATCH!
# tst.env.scbd nb_transport: expected transaction name:  transaction_count: 2358 addr:0x22 op:0x1 data:'{22}
# tst.env.scbd       nb_put:   actual transaction name:  transaction_count: 2338 addr:0x22 op:0x1 data:'{22}
# tst.env.scbd wb_transaction MATCH!
# tst.env.scbd nb_transport: expected transaction name:  transaction_count: 2381 addr:0x22 op:0x0 data:'{106}
# tst.env.scbd       nb_put:   actual transaction name:  transaction_count: 2362 addr:0x22 op:0x0 data:'{106}
# tst.env.scbd wb_transaction MATCH!
# tst.env.scbd nb_transport: expected transaction name:  transaction_count: 2404 addr:0x22 op:0x1 data:'{21}
# tst.env.scbd       nb_put:   actual transaction name:  transaction_count: 2384 addr:0x22 op:0x1 data:'{21}
# tst.env.scbd wb_transaction MATCH!
# tst.env.scbd nb_transport: expected transaction name:  transaction_count: 2427 addr:0x22 op:0x0 data:'{107}
# tst.env.scbd       nb_put:   actual transaction name:  transaction_count: 2408 addr:0x22 op:0x0 data:'{107}
# tst.env.scbd wb_transaction MATCH!
# tst.env.scbd nb_transport: expected transaction name:  transaction_count: 2450 addr:0x22 op:0x1 data:'{20}
# tst.env.scbd       nb_put:   actual transaction name:  transaction_count: 2430 addr:0x22 op:0x1 data:'{20}
# tst.env.scbd wb_transaction MATCH!
# tst.env.scbd nb_transport: expected transaction name:  transaction_count: 2473 addr:0x22 op:0x0 data:'{108}
# tst.env.scbd       nb_put:   actual transaction name:  transaction_count: 2454 addr:0x22 op:0x0 data:'{108}
# tst.env.scbd wb_transaction MATCH!
# tst.env.scbd nb_transport: expected transaction name:  transaction_count: 2496 addr:0x22 op:0x1 data:'{19}
# tst.env.scbd       nb_put:   actual transaction name:  transaction_count: 2476 addr:0x22 op:0x1 data:'{19}
# tst.env.scbd wb_transaction MATCH!
# tst.env.scbd nb_transport: expected transaction name:  transaction_count: 2519 addr:0x22 op:0x0 data:'{109}
# tst.env.scbd       nb_put:   actual transaction name:  transaction_count: 2500 addr:0x22 op:0x0 data:'{109}
# tst.env.scbd wb_transaction MATCH!
# tst.env.scbd nb_transport: expected transaction name:  transaction_count: 2542 addr:0x22 op:0x1 data:'{18}
# tst.env.scbd       nb_put:   actual transaction name:  transaction_count: 2522 addr:0x22 op:0x1 data:'{18}
# tst.env.scbd wb_transaction MATCH!
# tst.env.scbd nb_transport: expected transaction name:  transaction_count: 2565 addr:0x22 op:0x0 data:'{110}
# tst.env.scbd       nb_put:   actual transaction name:  transaction_count: 2546 addr:0x22 op:0x0 data:'{110}
# tst.env.scbd wb_transaction MATCH!
# tst.env.scbd nb_transport: expected transaction name:  transaction_count: 2588 addr:0x22 op:0x1 data:'{17}
# tst.env.scbd       nb_put:   actual transaction name:  transaction_count: 2568 addr:0x22 op:0x1 data:'{17}
# tst.env.scbd wb_transaction MATCH!
# tst.env.scbd nb_transport: expected transaction name:  transaction_count: 2611 addr:0x22 op:0x0 data:'{111}
# tst.env.scbd       nb_put:   actual transaction name:  transaction_count: 2592 addr:0x22 op:0x0 data:'{111}
# tst.env.scbd wb_transaction MATCH!
# tst.env.scbd nb_transport: expected transaction name:  transaction_count: 2634 addr:0x22 op:0x1 data:'{16}
# tst.env.scbd       nb_put:   actual transaction name:  transaction_count: 2614 addr:0x22 op:0x1 data:'{16}
# tst.env.scbd wb_transaction MATCH!
# tst.env.scbd nb_transport: expected transaction name:  transaction_count: 2657 addr:0x22 op:0x0 data:'{112}
# tst.env.scbd       nb_put:   actual transaction name:  transaction_count: 2638 addr:0x22 op:0x0 data:'{112}
# tst.env.scbd wb_transaction MATCH!
# tst.env.scbd nb_transport: expected transaction name:  transaction_count: 2680 addr:0x22 op:0x1 data:'{15}
# tst.env.scbd       nb_put:   actual transaction name:  transaction_count: 2660 addr:0x22 op:0x1 data:'{15}
# tst.env.scbd wb_transaction MATCH!
# tst.env.scbd nb_transport: expected transaction name:  transaction_count: 2703 addr:0x22 op:0x0 data:'{113}
# tst.env.scbd       nb_put:   actual transaction name:  transaction_count: 2684 addr:0x22 op:0x0 data:'{113}
# tst.env.scbd wb_transaction MATCH!
# tst.env.scbd nb_transport: expected transaction name:  transaction_count: 2726 addr:0x22 op:0x1 data:'{14}
# tst.env.scbd       nb_put:   actual transaction name:  transaction_count: 2706 addr:0x22 op:0x1 data:'{14}
# tst.env.scbd wb_transaction MATCH!
# tst.env.scbd nb_transport: expected transaction name:  transaction_count: 2749 addr:0x22 op:0x0 data:'{114}
# tst.env.scbd       nb_put:   actual transaction name:  transaction_count: 2730 addr:0x22 op:0x0 data:'{114}
# tst.env.scbd wb_transaction MATCH!
# tst.env.scbd nb_transport: expected transaction name:  transaction_count: 2772 addr:0x22 op:0x1 data:'{13}
# tst.env.scbd       nb_put:   actual transaction name:  transaction_count: 2752 addr:0x22 op:0x1 data:'{13}
# tst.env.scbd wb_transaction MATCH!
# tst.env.scbd nb_transport: expected transaction name:  transaction_count: 2795 addr:0x22 op:0x0 data:'{115}
# tst.env.scbd       nb_put:   actual transaction name:  transaction_count: 2776 addr:0x22 op:0x0 data:'{115}
# tst.env.scbd wb_transaction MATCH!
# tst.env.scbd nb_transport: expected transaction name:  transaction_count: 2818 addr:0x22 op:0x1 data:'{12}
